…
Problem 6. (2 points) The family Anatidae includes ducks, geese, and swans. Make a new object `ducks` that only includes species in the family Anatidae. Restrict this new dataframe to include all variables except order and family.

```r
ducks <- ecosphere %>% 
  filter(family=="Anatidae")
ducks
```

```
## # A tibble: 44 × 21
##    order    family commo…¹ scien…² diet  life_…³ habitat urban…⁴ migra…⁵ log10…⁶
##    <chr>    <chr>  <chr>   <chr>   <chr> <chr>   <chr>   <chr>   <chr>     <dbl>
##  1 Anserif… Anati… "Ameri… Anas r… Vege… Long    Wetland No      Short      3.09
##  2 Anserif… Anati… "Ameri… Anas a… Vege… Middle  Wetland No      Short      2.88
##  3 Anserif… Anati… "Barro… Buceph… Inve… Middle  Wetland No      Modera…    2.96
##  4 Anserif… Anati… "Black… Branta… Vege… Long    Wetland No      Modera…    3.11
##  5 Anserif… Anati… "Black… Melani… Inve… Middle  Wetland No      Modera…    3.02
##  6 Anserif… Anati… "Black… Dendro… Vege… Short   Wetland No      Withdr…    2.88
##  7 Anserif… Anati… "Blue-… Anas d… Vege… Middle  Wetland No      Modera…    2.56
##  8 Anserif… Anati… "Buffl… Buceph… Inve… Middle  Wetland No      Short      2.6 
##  9 Anserif… Anati… "Cackl… Branta… Vege… Middle  Wetland Yes     Short      3.45
## 10 Anserif… Anati… "Canva… Aythya… Vege… Middle  Wetland No      Short      3.08
## # … with 34 more rows, 11 more variables: mean_eggs_per_clutch <dbl>,
## #   mean_age_at_sexual_maturity <dbl>, population_size <dbl>,
## #   winter_range_area <dbl>, range_in_cbc <dbl>, strata <dbl>, circles <dbl>,
## #   feeder_bird <chr>, median_trend <dbl>, lower_95_percent_ci <dbl>,
## #   upper_95_percent_ci <dbl>, and abbreviated variable names ¹​common_name,
## #   ²​scientific_name, ³​life_expectancy, ⁴​urban_affiliate, ⁵​migratory_strategy,
## #   ⁶​log10_mass
```
…
