…
```
##  mort30  Apr  Aug  Dec  Feb  Jan  Jul  Jun  Mar  May  Nov  Oct  Sep
##      No 2686 3168 1835 2489 2651 2313 2980 2685 2644 2539 2681 3192
##     Yes   12    9    4   17   19   12   14   12   10    5    8   16
```

```r
surgery %>%
  count(month, mort30, complication)
```

```
## # A tibble: 48 × 4
##    month mort30 complication     n
##    <chr> <chr>  <chr>        <int>
##  1 Apr   No     No            2369
##  2 Apr   No     Yes            317
##  3 Apr   Yes    No               8
##  4 Apr   Yes    Yes              4
##  5 Aug   No     No            2708
##  6 Aug   No     Yes            460
##  7 Aug   Yes    No               7
##  8 Aug   Yes    Yes              2
##  9 Dec   No     No            1599
## 10 Dec   No     Yes            236
## # … with 38 more rows
```
…
