…
```r
amniota
```

```
## # A tibble: 21,322 × 36
##    class order      family genus species subsp…¹ commo…² femal…³ litte…⁴ litte…⁵
##    <chr> <chr>      <chr>  <chr> <chr>     <dbl> <chr>     <dbl>   <dbl>   <dbl>
##  1 Aves  Accipitri… Accip… Acci… albogu…    -999 Pied G…   -999  -999       -999
##  2 Aves  Accipitri… Accip… Acci… badius     -999 Shikra     363.    3.25       1
##  3 Aves  Accipitri… Accip… Acci… bicolor    -999 Bicolo…   -999     2.7     -999
##  4 Aves  Accipitri… Accip… Acci… brachy…    -999 New Br…   -999  -999       -999
##  5 Aves  Accipitri… Accip… Acci… brevip…    -999 Levant…    363.    4          1
##  6 Aves  Accipitri… Accip… Acci… castan…    -999 Chestn…   -999  -999       -999
##  7 Aves  Accipitri… Accip… Acci… chilen…    -999 Chilea…   -999     2.7     -999
##  8 Aves  Accipitri… Accip… Acci… chiono…    -999 White-…    548.    4.25       1
##  9 Aves  Accipitri… Accip… Acci… cirroc…    -999 Collar…   -999     3.25    -999
## 10 Aves  Accipitri… Accip… Acci… cooper…    -999 Cooper…    730     4.35       1
## # … with 21,312 more rows, 26 more variables: adult_body_mass_g <dbl>,
## #   maximum_longevity_y <dbl>, gestation_d <dbl>, weaning_d <dbl>,
## #   birth_or_hatching_weight_g <dbl>, weaning_weight_g <dbl>, egg_mass_g <dbl>,
## #   incubation_d <dbl>, fledging_age_d <dbl>, longevity_y <dbl>,
## #   male_maturity_d <dbl>, inter_litter_or_interbirth_interval_y <dbl>,
## #   female_body_mass_g <dbl>, male_body_mass_g <dbl>, no_sex_body_mass_g <dbl>,
## #   egg_width_mm <dbl>, egg_length_mm <dbl>, fledging_mass_g <dbl>, …
```
…
```r
amphibio
```

```
## # A tibble: 6,776 × 38
##    id    Order Family Genus Species   Fos   Ter   Aqu   Arb Leaves Flowers Seeds
##    <chr> <chr> <chr>  <chr> <chr>   <dbl> <dbl> <dbl> <dbl>  <dbl>   <dbl> <dbl>
##  1 Anf0… Anura Allop… Allo… Alloph…    NA     1     1     1     NA      NA    NA
##  2 Anf0… Anura Alyti… Alyt… Alytes…    NA     1     1     1     NA      NA    NA
##  3 Anf0… Anura Alyti… Alyt… Alytes…    NA     1     1     1     NA      NA    NA
##  4 Anf0… Anura Alyti… Alyt… Alytes…    NA     1     1     1     NA      NA    NA
##  5 Anf0… Anura Alyti… Alyt… Alytes…    NA     1    NA     1     NA      NA    NA
##  6 Anf0… Anura Alyti… Alyt… Alytes…     1     1     1     1     NA      NA    NA
##  7 Anf0… Anura Alyti… Disc… Discog…     1     1     1    NA     NA      NA    NA
##  8 Anf0… Anura Alyti… Disc… Discog…     1     1     1    NA     NA      NA    NA
##  9 Anf0… Anura Alyti… Disc… Discog…     1     1     1    NA     NA      NA    NA
## 10 Anf0… Anura Alyti… Disc… Discog…     1     1     1    NA     NA      NA    NA
## # … with 6,766 more rows, and 26 more variables: Fruits <lgl>, Arthro <dbl>,
## #   Vert <dbl>, Diu <dbl>, Noc <dbl>, Crepu <dbl>, Wet_warm <dbl>,
## #   Wet_cold <dbl>, Dry_warm <dbl>, Dry_cold <dbl>, Body_mass_g <dbl>,
## #   Age_at_maturity_min_y <dbl>, Age_at_maturity_max_y <dbl>,
## #   Body_size_mm <dbl>, Size_at_maturity_min_mm <dbl>,
## #   Size_at_maturity_max_mm <dbl>, Longevity_max_y <dbl>,
## #   Litter_size_min_n <dbl>, Litter_size_max_n <dbl>, …
```
…
**5. Make any necessary replacements in the data such that all NA's appear as "NA".**   

```r
amniota_tidy <- amniota %>% 
  na_if("-999")
```

**6. Use the package `naniar` to produce a summary, including percentages, of missing data in each column for the `amniota` data.**  

```r
naniar::miss_var_summary(amniota_tidy)
```

```
## # A tibble: 36 × 3
##    variable                       n_miss pct_miss
##    <chr>                           <int>    <dbl>
##  1 subspecies                      21322    100  
##  2 female_body_mass_at_maturity_g  21318    100. 
##  3 female_svl_at_maturity_cm       21120     99.1
##  4 fledging_mass_g                 21111     99.0
##  5 male_svl_cm                     21040     98.7
##  6 no_sex_maturity_d               20860     97.8
##  7 egg_width_mm                    20727     97.2
##  8 egg_length_mm                   20702     97.1
##  9 weaning_weight_g                20258     95.0
## 10 female_svl_cm                   20242     94.9
## # … with 26 more rows
```

**7. Use the package `naniar` to produce a summary, including percentages, of missing data in each column for the `amphibio` data.**

```r
naniar::miss_var_summary(amphibio)
```

```
## # A tibble: 38 × 3
##    variable n_miss pct_miss
##    <chr>     <int>    <dbl>
##  1 Fruits     6774    100. 
##  2 Flowers    6772     99.9
##  3 Seeds      6772     99.9
##  4 Leaves     6752     99.6
##  5 Dry_cold   6735     99.4
##  6 Vert       6657     98.2
##  7 OBS        6651     98.2
##  8 Wet_cold   6625     97.8
##  9 Crepu      6608     97.5
## 10 Dry_warm   6572     97.0
## # … with 28 more rows
```
…
```r
amniota
```

```
## # A tibble: 21,322 × 36
##    class order      family genus species subsp…¹ commo…² femal…³ litte…⁴ litte…⁵
##    <chr> <chr>      <chr>  <chr> <chr>     <dbl> <chr>     <dbl>   <dbl>   <dbl>
##  1 Aves  Accipitri… Accip… Acci… albogu…      NA Pied G…     NA    NA         NA
##  2 Aves  Accipitri… Accip… Acci… badius       NA Shikra     363.    3.25       1
##  3 Aves  Accipitri… Accip… Acci… bicolor      NA Bicolo…     NA     2.7       NA
##  4 Aves  Accipitri… Accip… Acci… brachy…      NA New Br…     NA    NA         NA
##  5 Aves  Accipitri… Accip… Acci… brevip…      NA Levant…    363.    4          1
##  6 Aves  Accipitri… Accip… Acci… castan…      NA Chestn…     NA    NA         NA
##  7 Aves  Accipitri… Accip… Acci… chilen…      NA Chilea…     NA     2.7       NA
##  8 Aves  Accipitri… Accip… Acci… chiono…      NA White-…    548.    4.25       1
##  9 Aves  Accipitri… Accip… Acci… cirroc…      NA Collar…     NA     3.25      NA
## 10 Aves  Accipitri… Accip… Acci… cooper…      NA Cooper…    730     4.35       1
## # … with 21,312 more rows, 26 more variables: adult_body_mass_g <dbl>,
## #   maximum_longevity_y <dbl>, gestation_d <dbl>, weaning_d <dbl>,
## #   birth_or_hatching_weight_g <dbl>, weaning_weight_g <dbl>, egg_mass_g <dbl>,
## #   incubation_d <dbl>, fledging_age_d <dbl>, longevity_y <dbl>,
## #   male_maturity_d <dbl>, inter_litter_or_interbirth_interval_y <dbl>,
## #   female_body_mass_g <dbl>, male_body_mass_g <dbl>, no_sex_body_mass_g <dbl>,
## #   egg_width_mm <dbl>, egg_length_mm <dbl>, fledging_mass_g <dbl>, …
```
…
