…
```
##  Factor w/ 204 levels "Albania","Algeria",..: 1 1 1 1 1 1 1 1 1 1 ...
```

4. Refocus the data only to include country, isscaap_taxonomic_group, asfis_species_name, asfis_species_number, year, catch.

```r
fisheries_tidy %>% 
  select(country, isscaap_taxonomic_group, asfis_species_name, asfis_species_number, year, catch)
```

```
## # A tibble: 376,771 × 6
##    country isscaap_taxonomic_group asfis_species_name asfis_specie…¹  year catch
##    <fct>   <chr>                   <chr>              <fct>          <dbl> <dbl>
##  1 Albania Sharks, rays, chimaeras Squatinidae        10903XXXXX      1995    NA
##  2 Albania Sharks, rays, chimaeras Squatinidae        10903XXXXX      1996    53
##  3 Albania Sharks, rays, chimaeras Squatinidae        10903XXXXX      1997    20
##  4 Albania Sharks, rays, chimaeras Squatinidae        10903XXXXX      1998    31
##  5 Albania Sharks, rays, chimaeras Squatinidae        10903XXXXX      1999    30
##  6 Albania Sharks, rays, chimaeras Squatinidae        10903XXXXX      2000    30
##  7 Albania Sharks, rays, chimaeras Squatinidae        10903XXXXX      2001    16
##  8 Albania Sharks, rays, chimaeras Squatinidae        10903XXXXX      2002    79
##  9 Albania Sharks, rays, chimaeras Squatinidae        10903XXXXX      2003     1
## 10 Albania Sharks, rays, chimaeras Squatinidae        10903XXXXX      2004     4
## # … with 376,761 more rows, and abbreviated variable name ¹​asfis_species_number
```
…
6. Which country had the largest overall catch in the year 2000?

```r
fisheries_tidy %>% 
  filter(year==2000) %>% 
  group_by(country) %>% 
  summarize(catch_total=sum(catch, na.rm=T)) %>% 
  arrange(desc(catch_total))
```

```
## # A tibble: 193 × 2
##    country                  catch_total
##    <fct>                          <dbl>
##  1 China                          25899
##  2 Russian Federation             12181
##  3 United States of America       11762
##  4 Japan                           8510
##  5 Indonesia                       8341
##  6 Peru                            7443
##  7 Chile                           6906
##  8 India                           6351
##  9 Thailand                        6243
## 10 Korea, Republic of              6124
## # … with 183 more rows
```

7. Which country caught the most sardines (_Sardina pilchardus_) between the years 1990-2000?

```r
fisheries_tidy %>% 
  group_by(country) %>% 
  filter(between(year, 1990, 2000)) %>% 
  filter(asfis_species_name=="Sardina pilchardus") %>% 
  summarize(catch_total=sum(catch, na.rm=T)) %>%
  arrange(desc(catch_total))
```

```
## # A tibble: 37 × 2
##    country               catch_total
##    <fct>                       <dbl>
##  1 Morocco                      7470
##  2 Spain                        3507
##  3 Russian Federation           1639
##  4 Ukraine                      1030
##  5 France                        966
##  6 Portugal                      818
##  7 Greece                        528
##  8 Italy                         507
##  9 Serbia and Montenegro         478
## 10 Denmark                       477
## # … with 27 more rows
```
…
9. Which species had the highest catch total between 2008-2012? (hint: Osteichthyes is not a species)



```r
fisheries_tidy %>% 
  filter(asfis_species_name !="Osteichthyes") %>% 
  group_by (asfis_species_name) %>% 
  summarize(catch_total=sum(catch, na.rm=T)) %>%  
  arrange(desc(catch_total))
```

```
## # A tibble: 1,545 × 2
##    asfis_species_name      catch_total
##    <chr>                         <dbl>
##  1 Engraulis ringens            540739
##  2 Theragra chalcogramma        473722
##  3 Clupea harengus              264304
##  4 Gadus morhua                 217930
##  5 Katsuwonus pelamis           194923
##  6 Sardinops sagax              176094
##  7 Scomber japonicus            175444
##  8 Trachurus murphyi            152034
##  9 Sardinops melanostictus      144774
## 10 Mallotus villosus            131239
## # … with 1,535 more rows
```
…
